timeStamp,elapsed,label,responseCode,responseMessage,threadName,dataType,success,failureMessage,bytes,sentBytes,grpThreads,allThreads,URL,Latency,IdleTime,Connect
1656419703987,33,PostgreSQL 1-0-0-your-mentions,200,OK,Thread Group 1-0-0-your-mentions 1-1,text,true,,494,133,1,1,http://localhost:8083/your-mentions?u=1,33,0,11
1656419704021,667,Neo4j 1-0-0-your-mentions,200,OK,Thread Group 1-0-0-your-mentions 1-1,text,true,,663,133,1,1,http://localhost:8082/your-mentions?u=1,666,0,0
1656419704691,6,PostgreSQL 1-0-0-your-mentions,200,OK,Thread Group 1-0-0-your-mentions 1-1,text,true,,494,133,1,1,http://localhost:8083/your-mentions?u=1,6,0,1
1656419704698,33,Neo4j 1-0-0-your-mentions,200,OK,Thread Group 1-0-0-your-mentions 1-1,text,true,,663,133,1,1,http://localhost:8082/your-mentions?u=1,33,0,0
1656419704731,7,PostgreSQL 1-0-0-your-mentions,200,OK,Thread Group 1-0-0-your-mentions 1-1,text,true,,494,133,1,1,http://localhost:8083/your-mentions?u=1,7,0,1
1656419704738,18,Neo4j 1-0-0-your-mentions,200,OK,Thread Group 1-0-0-your-mentions 1-1,text,true,,663,133,1,1,http://localhost:8082/your-mentions?u=1,18,0,1
1656419704756,6,PostgreSQL 1-0-0-your-mentions,200,OK,Thread Group 1-0-0-your-mentions 1-1,text,true,,494,133,1,1,http://localhost:8083/your-mentions?u=1,6,0,1
1656419704763,16,Neo4j 1-0-0-your-mentions,200,OK,Thread Group 1-0-0-your-mentions 1-1,text,true,,663,133,1,1,http://localhost:8082/your-mentions?u=1,15,0,0
1656419704779,6,PostgreSQL 1-0-0-your-mentions,200,OK,Thread Group 1-0-0-your-mentions 1-1,text,true,,494,133,1,1,http://localhost:8083/your-mentions?u=1,6,0,0
1656419704785,16,Neo4j 1-0-0-your-mentions,200,OK,Thread Group 1-0-0-your-mentions 1-1,text,true,,663,133,1,1,http://localhost:8082/your-mentions?u=1,16,0,1
1656419704802,5,PostgreSQL 1-0-0-your-mentions,200,OK,Thread Group 1-0-0-your-mentions 1-1,text,true,,494,133,1,1,http://localhost:8083/your-mentions?u=1,5,0,0
1656419704808,14,Neo4j 1-0-0-your-mentions,200,OK,Thread Group 1-0-0-your-mentions 1-1,text,true,,663,133,1,1,http://localhost:8082/your-mentions?u=1,14,0,0
1656419704823,6,PostgreSQL 1-0-0-your-mentions,200,OK,Thread Group 1-0-0-your-mentions 1-1,text,true,,494,133,1,1,http://localhost:8083/your-mentions?u=1,6,0,0
1656419704829,14,Neo4j 1-0-0-your-mentions,200,OK,Thread Group 1-0-0-your-mentions 1-1,text,true,,663,133,1,1,http://localhost:8082/your-mentions?u=1,14,0,0
1656419704843,6,PostgreSQL 1-0-0-your-mentions,200,OK,Thread Group 1-0-0-your-mentions 1-1,text,true,,494,133,1,1,http://localhost:8083/your-mentions?u=1,6,0,0
1656419704850,15,Neo4j 1-0-0-your-mentions,200,OK,Thread Group 1-0-0-your-mentions 1-1,text,true,,663,133,1,1,http://localhost:8082/your-mentions?u=1,15,0,0
1656419704866,6,PostgreSQL 1-0-0-your-mentions,200,OK,Thread Group 1-0-0-your-mentions 1-1,text,true,,494,133,1,1,http://localhost:8083/your-mentions?u=1,6,0,1
1656419704873,13,Neo4j 1-0-0-your-mentions,200,OK,Thread Group 1-0-0-your-mentions 1-1,text,true,,663,133,1,1,http://localhost:8082/your-mentions?u=1,13,0,0
1656419704887,6,PostgreSQL 1-0-0-your-mentions,200,OK,Thread Group 1-0-0-your-mentions 1-1,text,true,,494,133,1,1,http://localhost:8083/your-mentions?u=1,6,0,0
1656419704893,14,Neo4j 1-0-0-your-mentions,200,OK,Thread Group 1-0-0-your-mentions 1-1,text,true,,663,133,1,1,http://localhost:8082/your-mentions?u=1,14,0,1
